{
    "tasks" : {
        "tsd install" : {
            "title" : "Installation des définitions typescript"
        },
        "gulp compile" : {
            "title" : "Compilation des fichiers .ts en .js"
        },
        "gulp uglify" : {
            "title" : "Uglification de tout les fichiers .js"
        },
        "tsc" : {
            "title" : "Compilation des fichiers .ts en .js grace à tsconfig.json"
        }
    },
    "crontabs" : {
        "complete" : ["tsd install","gulp compile","gulp uglify"],
        "js" : ["gulp compile","gulp uglify"],
        "force-js" : ["tsc","gulp uglify"]
    }
}
